{
    "variants": {
        "distance=1": [
			{ "model": "autumnity:block/yellow_maple_leaves" },
			{ "model": "autumnity:block/yellow_maple_leaves1" }
				],
        "distance=2": [
			{ "model": "autumnity:block/yellow_maple_leaves" },
			{ "model": "autumnity:block/yellow_maple_leaves1" }
				],
        "distance=3": [
			{ "model": "autumnity:block/yellow_maple_leaves" },
			{ "model": "autumnity:block/yellow_maple_leaves1" }
				],
        "distance=4": [
			{ "model": "autumnity:block/yellow_maple_leaves" },
			{ "model": "autumnity:block/yellow_maple_leaves1" }
				],
        "distance=5": [
			{ "model": "autumnity:block/yellow_maple_leaves" },
			{ "model": "autumnity:block/yellow_maple_leaves1" }
				],
        "distance=6": [
			{ "model": "autumnity:block/yellow_maple_leaves" },
			{ "model": "autumnity:block/yellow_maple_leaves1" }
				],
        "distance=7": [
			{ "model": "autumnity:block/yellow_maple_leaves" },
			{ "model": "autumnity:block/yellow_maple_leaves1" }
				]
    }
}
