{
  "type": "crafting_shapeless",
  "ingredients": [
    [
      { "type": "forge:nbt", "item": "minecraft:potion", "count": 1, "nbt": "{Potion:\"minecraft:water\"}" },
      { "item": "minecraft:water_bucket" }
    ],
    { "tag": "forge:grain/wheat" },
    { "tag": "forge:grain/wheat" },
    { "tag": "forge:grain/wheat" },
    { "tag": "forge:grain/wheat" },
    { "tag": "forge:eggs" }
  ],
  "result": { "item": "farmersdelight:wheat_dough", "count": 8  }
}