{
  "replace": false,
  "values": [
    "collectorsreap:lime_seeds",
    "farmersrespite:tea_seeds",
    "environmental:cattail_seeds",
    "#minecraft:saplings",
    "nethersdelight:propelplant_cane",
    "nethersdelight:crimson_fungus_colony",
    "nethersdelight:warped_fungus_colony",
    "farmersdelight:brown_mushroom_colony",
    "farmersdelight:red_mushroom_colony",
    "collectorsreap:portobello_colony",
    "collectorsreap:portobello",
    "neapolitan:mint_sprout",
    "neapolitan:adzuki_beans",
    "neapolitan:small_banana_frond",
    "neapolitan:banana_frond",
    "neapolitan:large_banana_frond",
    "berry_good:sweet_berry_pips",
    "berry_good:glow_berry_pips",
    "atmospheric:aloe_kernels",
    "atmospheric:yucca_branch",
    "atmospheric:passion_vine",
    "hauntedharvest:corn"
  ]
}