{
    "variants": {
        "distance=1": [
			{ "model": "windswept:block/chestnut_leaves" },
			{ "model": "windswept:block/chestnut_leaves1" }
				],
        "distance=2": [
			{ "model": "windswept:block/chestnut_leaves" },
			{ "model": "windswept:block/chestnut_leaves1" }
				],
        "distance=3": [
			{ "model": "windswept:block/chestnut_leaves" },
			{ "model": "windswept:block/chestnut_leaves1" }
				],
        "distance=4": [
			{ "model": "windswept:block/chestnut_leaves" },
			{ "model": "windswept:block/chestnut_leaves1" }
				],
        "distance=5": [
			{ "model": "windswept:block/chestnut_leaves" },
			{ "model": "windswept:block/chestnut_leaves1" }
				],
        "distance=6": [
			{ "model": "windswept:block/chestnut_leaves" },
			{ "model": "windswept:block/chestnut_leaves1" }
				],
        "distance=7": [
			{ "model": "windswept:block/chestnut_leaves" },
			{ "model": "windswept:block/chestnut_leaves1" }
				]
    }
}
