{
  "type": "farmersdelight:cutting",
  "ingredients": [
    {
      "item": "minecraft:ice"
    }
  ],
  "result": [
    {
      "count": 1,
      "item": "neapolitan:ice_cubes"
    },
    {
      "chance": 0.75,
      "count": 1,
      "item": "neapolitan:ice_cubes"
    },
    {
      "chance": 0.50,
      "count": 1,
      "item": "neapolitan:ice_cubes"
    },
    {
      "chance": 0.25,
      "count": 1,
      "item": "neapolitan:ice_cubes"
    }
  ],
  "tool": {
    "type": "farmersdelight:tool_action",
    "action": "pickaxe_dig"
  }
}